{

    "FakeData": [
        {
            "CheckCaseWork": {
                "payload": {
                    "invalidations": [],
                    "isValid": true,
                    "entityState": {
                        "CaseworkReasons": "8/30/2018 5:24:30 PM, Check QLTS certificate",
                        "Complexity": 165820000,
                        "CaseStage": 5,
                        "ApplicationStatus": 165820006,
                        "Authority": "e86eaf7e-c905-e811-8112-70106faa8331",
                        "AuthorityRule": "82E723A5-8615-E811-8114-70106FAA8331"
                    }
                },
                "errors": [],
                "statusCode": 200
            }

        },

        {
            "LoadAttribute": {
                "payload": [
                    { "AttributeCode": "ATT106,190 " }
                ],
                "errors": [],
                "statusCode": 200
            }

        }
    ],


    "OverrideParameters": [
        {
            "UserId": "EE5D840D-96DB-43B9-8B98-EDCB2C3797E5",
            "Attributes": [
                {
                    "AttributeType": "AT-001",
                    "AttributeCode": "T001"
                },
                {
                    "AttributeType": "AT-002",
                    "AttributeCode": "T002"
                }
            ],
            "ContactDto": {
                            "FirstName": "Lam", 
                            "LastName": "Nguyen"
                          }
        }
    ],

    "ExpectedResult": [

        { "FullName": "Lam Nguyen" }
    ]
}
